module gitlab.com/pasta-lab/gitops-controller

go 1.20

require (
	github.com/hashicorp/vault/api v1.9.0
	github.com/onsi/ginkgo/v2 v2.9.1
	github.com/onsi/gomega v1.27.4
	k8s.io/apimachinery v0.26.4
	k8s.io/client-go v0.26.4
	sigs.k8s.io/controller-runtime v0.14.6
)

require (
	github.com/beorn7/perks v1.0.1 // indirect
	github.com/cenkalti/backoff/v3 v3.0.0 // indirect
	github.com/cespare/xxhash/v2 v2.1.2 // indirect
	github.com/davecgh/go-spew v1.1.1 // indirect
	github.com/emicklei/go-restful/v3 v3.9.0 // indirect
	github.com/evanphx/json-patch/v5 v5.6.0 // indirect
	github.com/fsnotify/fsnotify v1.6.0 // indirect
	github.com/go-logr/logr v1.2.3 // indirect
	github.com/go-logr/zapr v1.2.3 // indirect
	github.com/go-openapi/jsonpointer v0.19.6 // indirect
	github.com/go-openapi/jsonreference v0.20.1 // indirect
	github.com/go-openapi/swag v0.22.3 // indirect
	github.com/go-task/slim-sprig v0.0.0-20210107165309-348f09dbbbc0 // indirect
	github.com/gogo/protobuf v1.3.2 // indirect
	github.com/golang/groupcache v0.0.0-20210331224755-41bb18bfe9da // indirect
	github.com/golang/protobuf v1.5.3 // indirect
	github.com/google/gnostic v0.5.7-v3refs // indirect
	github.com/google/go-cmp v0.5.9 // indirect
	github.com/google/gofuzz v1.1.0 // indirect
	github.com/google/pprof v0.0.0-20210720184732-4bb14d4b1be1 // indirect
	github.com/google/uuid v1.3.0 // indirect
	github.com/hashicorp/errwrap v1.1.0 // indirect
	github.com/hashicorp/go-cleanhttp v0.5.2 // indirect
	github.com/hashicorp/go-multierror v1.1.1 // indirect
	github.com/hashicorp/go-retryablehttp v0.6.6 // indirect
	github.com/hashicorp/go-rootcerts v1.0.2 // indirect
	github.com/hashicorp/go-secure-stdlib/parseutil v0.1.6 // indirect
	github.com/hashicorp/go-secure-stdlib/strutil v0.1.2 // indirect
	github.com/hashicorp/go-sockaddr v1.0.2 // indirect
	github.com/hashicorp/hcl v1.0.0 // indirect
	github.com/imdario/mergo v0.3.6 // indirect
	github.com/josharian/intern v1.0.0 // indirect
	github.com/json-iterator/go v1.1.12 // indirect
	github.com/mailru/easyjson v0.7.7 // indirect
	github.com/matttproud/golang_protobuf_extensions v1.0.2 // indirect
	github.com/mitchellh/go-homedir v1.1.0 // indirect
	github.com/mitchellh/mapstructure v1.5.0 // indirect
	github.com/modern-go/concurrent v0.0.0-20180306012644-bacd9c7ef1dd // indirect
	github.com/modern-go/reflect2 v1.0.2 // indirect
	github.com/munnerz/goautoneg v0.0.0-20191010083416-a7dc8b61c822 // indirect
	github.com/pkg/errors v0.9.1 // indirect
	github.com/prometheus/client_golang v1.14.0 // indirect
	github.com/prometheus/client_model v0.3.0 // indirect
	github.com/prometheus/common v0.37.0 // indirect
	github.com/prometheus/procfs v0.8.0 // indirect
	github.com/ryanuber/go-glob v1.0.0 // indirect
	github.com/spf13/pflag v1.0.5 // indirect
	go.uber.org/atomic v1.7.0 // indirect
	go.uber.org/multierr v1.6.0 // indirect
	go.uber.org/zap v1.24.0 // indirect
	golang.org/x/crypto v0.5.0 // indirect
	golang.org/x/net v0.8.0 // indirect
	golang.org/x/oauth2 v0.0.0-20220223155221-ee480838109b // indirect
	golang.org/x/sys v0.6.0 // indirect
	golang.org/x/term v0.6.0 // indirect
	golang.org/x/text v0.8.0 // indirect
	golang.org/x/time v0.3.0 // indirect
	golang.org/x/tools v0.7.0 // indirect
	gomodules.xyz/jsonpatch/v2 v2.2.0 // indirect
	google.golang.org/appengine v1.6.7 // indirect
	google.golang.org/protobuf v1.28.1 // indirect
	gopkg.in/inf.v0 v0.9.1 // indirect
	gopkg.in/square/go-jose.v2 v2.5.1 // indirect
	gopkg.in/yaml.v2 v2.4.0 // indirect
	gopkg.in/yaml.v3 v3.0.1 // indirect
	k8s.io/api v0.26.4 // indirect
	k8s.io/apiextensions-apiserver v0.26.1 // indirect
	k8s.io/component-base v0.26.1 // indirect
	k8s.io/klog/v2 v2.90.1 // indirect
	k8s.io/kube-openapi v0.0.0-20230308215209-15aac26d736a // indirect
	k8s.io/utils v0.0.0-20230209194617-a36077c30491 // indirect
	sigs.k8s.io/json v0.0.0-20221116044647-bc3834ca7abd // indirect
	sigs.k8s.io/structured-merge-diff/v4 v4.2.3 // indirect
	sigs.k8s.io/yaml v1.3.0 // indirect
)
